[gd_scene load_steps=4 format=2]

[ext_resource path="res://assets/Planet5.png" type="Texture" id=1]
[ext_resource path="res://src/Objects/Planet.gd" type="Script" id=2]

[sub_resource type="CircleShape2D" id=1]
radius = 29.0803

[node name="Planet" type="KinematicBody2D" groups=[
"obstacle",
]]
script = ExtResource( 2 )
astral_body_mass = 150

[node name="CollisionShape2D" type="CollisionShape2D" parent="."]
shape = SubResource( 1 )
__meta__ = {
"_edit_lock_": true
}

[node name="Sprite" type="Sprite" parent="."]
scale = Vector2( 0.05, 0.05 )
texture = ExtResource( 1 )
